{
    "name": "Garra.SSGE.Editor",
    "references": [
        "GUID:392eda2a1b9157f48b96fa66fa4d51b7"
    ],
    "includePlatforms": [
        "Editor"
    ],
    "excludePlatforms": [],
    "allowUnsafeCode": false,
    "overrideReferences": false,
    "precompiledReferences": [],
    "autoReferenced": true,
    "defineConstraints": [],
    "versionDefines": [],
    "noEngineReferences": false
}